{"name":"To verify Rest service - GET method","id":"verify-api-automation-on-reqres-website:To verify Rest service - GET method","testSteps":[{"number":1,"description":"When I submit the GET request at list endpoint","duration":2348,"startTime":"2022-06-21T21:26:32.358+01:00[Europe/London]","result":"SUCCESS","precondition":false,"children":[{"number":2,"description":"Getting the List of all Users","duration":2161,"startTime":"2022-06-21T21:26:32.545+01:00[Europe/London]","result":"SUCCESS","precondition":false,"children":[{"number":3,"description":"GET https://reqres.in/api/users?page\u003d2\r\r","duration":1,"startTime":"2022-06-21T21:26:34.694+01:00[Europe/London]","result":"SUCCESS","restQuery":{"method":"GET","path":"https://reqres.in/api/users?page\u003d2\r\r","content":"\r","contentType":"null","requestHeaders":"Accept\u003d*/*\r\r","requestCookies":"\r\r","responseHeaders":"Date: Tue, 21 Jun 2022 20:26:34 GMT\nContent-Type: application/json; charset\u003dutf-8\nTransfer-Encoding: chunked\nConnection: keep-alive\nX-Powered-By: Express\nAccess-Control-Allow-Origin: *\nEtag: W/\"406-ut0vzoCuidvyMf8arZpMpJ6ZRDw\"\nVia: 1.1 vegur\nCache-Control: max-age\u003d14400\nCF-Cache-Status: HIT\nAge: 247\nExpect-CT: max-age\u003d604800, report-uri\u003d\"https://report-uri.cloudflare.com/cdn-cgi/beacon/expect-ct\"\nReport-To: {\"endpoints\":[{\"url\":\"https:\\/\\/a.nel.cloudflare.com\\/report\\/v3?s\u003dOxifcJGgkaltYaMCycA5INE96xVY3goG3Tnu9JMCQfXvcTiwUfdwHMAhYbG1C0ZcgfsGLmnEaRGItbFrdMIZxxW8kQ5Kya1okKyV3Tw60kZKZpaeim%2FqRv6EGw%3D%3D\"}],\"group\":\"cf-nel\",\"max_age\":604800}\nNEL: {\"success_fraction\":0,\"report_to\":\"cf-nel\",\"max_age\":604800}\nVary: Accept-Encoding\nServer: cloudflare\nCF-RAY: 71ef7add9cfc76ea-LHR\nContent-Encoding: gzip\r","responseCookies":"\r","responseBody":"{\n    \"page\": 2,\n    \"per_page\": 6,\n    \"total\": 12,\n    \"total_pages\": 2,\n    \"data\": [\n        {\n            \"id\": 7,\n            \"email\": \"michael.lawson@reqres.in\",\n            \"first_name\": \"Michael\",\n            \"last_name\": \"Lawson\",\n            \"avatar\": \"https://reqres.in/img/faces/7-image.jpg\"\n        },\n        {\n            \"id\": 8,\n            \"email\": \"lindsay.ferguson@reqres.in\",\n            \"first_name\": \"Lindsay\",\n            \"last_name\": \"Ferguson\",\n            \"avatar\": \"https://reqres.in/img/faces/8-image.jpg\"\n        },\n        {\n            \"id\": 9,\n            \"email\": \"tobias.funke@reqres.in\",\n            \"first_name\": \"Tobias\",\n            \"last_name\": \"Funke\",\n            \"avatar\": \"https://reqres.in/img/faces/9-image.jpg\"\n        },\n        {\n            \"id\": 10,\n            \"email\": \"byron.fields@reqres.in\",\n            \"first_name\": \"Byron\",\n            \"last_name\": \"Fields\",\n            \"avatar\": \"https://reqres.in/img/faces/10-image.jpg\"\n        },\n        {\n            \"id\": 11,\n            \"email\": \"george.edwards@reqres.in\",\n            \"first_name\": \"George\",\n            \"last_name\": \"Edwards\",\n            \"avatar\": \"https://reqres.in/img/faces/11-image.jpg\"\n        },\n        {\n            \"id\": 12,\n            \"email\": \"rachel.howell@reqres.in\",\n            \"first_name\": \"Rachel\",\n            \"last_name\": \"Howell\",\n            \"avatar\": \"https://reqres.in/img/faces/12-image.jpg\"\n        }\n    ],\n    \"support\": {\n        \"url\": \"https://reqres.in/#support-heading\",\n        \"text\": \"To keep ReqRes free, contributions towards server costs are appreciated!\"\n    }\n}","statusCode":200},"precondition":false}]}]},{"number":4,"description":"Then I should get response 200 success status code","duration":21,"startTime":"2022-06-21T21:26:34.707+01:00[Europe/London]","result":"SUCCESS","precondition":false}],"userStory":{"id":"verify-api-automation-on-reqres-website","storyName":"Verify API automation on reqres website","path":"reqres.feature","type":"feature"},"featureTag":{"name":"Verify API automation on reqres website","type":"feature"},"title":"To verify Rest service - GET method","description":"","tags":[{"name":"SMOKE","type":"tag"},{"name":"Verify API automation on reqres website","type":"feature"}],"startTime":"2022-06-21T21:26:32.262+01:00[Europe/London]","duration":2467,"projectKey":"","manual":false,"result":"SUCCESS"}